Lab3/simulation/qsim/LogicalStep_Lab3.msim.vcd
$comment
	File created using the following command:
		vcd file LogicalStep_Lab3.msim.vcd -direction
$end
$date
	Fri Mar 12 19:43:24 2021
$end
$version
	ModelSim Version 10.5b
$end
$timescale
	1ps
$end

$scope module LogicalStep_Lab3_top_vlg_vec_tst $end
$var reg 1 ! clk_in $end
$var reg 4 " pb [3:0] $end
$var reg 8 # sw [7:0] $end
$var wire 1 $ leds [11] $end
$var wire 1 % leds [10] $end
$var wire 1 & leds [9] $end
$var wire 1 ' leds [8] $end
$var wire 1 ( leds [7] $end
$var wire 1 ) leds [6] $end
$var wire 1 * leds [5] $end
$var wire 1 + leds [4] $end
$var wire 1 , leds [3] $end
$var wire 1 - leds [2] $end
$var wire 1 . leds [1] $end
$var wire 1 / leds [0] $end

$scope module i1 $end
$var wire 1 0 gnd $end
$var wire 1 1 vcc $end
$var wire 1 2 unknown $end
$var tri1 1 3 devclrn $end
$var tri1 1 4 devpor $end
$var tri1 1 5 devoe $end
$var wire 1 6 ~QUARTUS_CREATED_GND~I_combout $end
$var wire 1 7 ~QUARTUS_CREATED_UNVM~~busy $end
$var wire 1 8 ~QUARTUS_CREATED_ADC1~~eoc $end
$var wire 1 9 leds[0]~output_o $end
$var wire 1 : leds[1]~output_o $end
$var wire 1 ; leds[2]~output_o $end
$var wire 1 < leds[3]~output_o $end
$var wire 1 = leds[4]~output_o $end
$var wire 1 > leds[5]~output_o $end
$var wire 1 ? leds[6]~output_o $end
$var wire 1 @ leds[7]~output_o $end
$var wire 1 A leds[8]~output_o $end
$var wire 1 B leds[9]~output_o $end
$var wire 1 C leds[10]~output_o $end
$var wire 1 D leds[11]~output_o $end
$var wire 1 E sw[3]~input_o $end
$var wire 1 F pb[3]~input_o $end
$var wire 1 G sw[7]~input_o $end
$var wire 1 H Target_Temp|temp_out[3]~0_combout $end
$var wire 1 I sw[6]~input_o $end
$var wire 1 J sw[2]~input_o $end
$var wire 1 K Target_Temp|temp_out[2]~1_combout $end
$var wire 1 L clk_in~input_o $end
$var wire 1 M clk_in~inputclkctrl_outclk $end
$var wire 1 N pb[2]~input_o $end
$var wire 1 O pb[1]~input_o $end
$var wire 1 P pb[0]~input_o $end
$var wire 1 Q Control_Energy|BLOWER~2_combout $end
$var wire 1 R HVAC_Sim|Add0~1_cout $end
$var wire 1 S HVAC_Sim|Add0~2_combout $end
$var wire 1 T HVAC_Sim|counter:cnt[1]~0_combout $end
$var wire 1 U HVAC_Sim|counter:cnt[1]~q $end
$var wire 1 V sw[1]~input_o $end
$var wire 1 W sw[5]~input_o $end
$var wire 1 X Target_Temp|temp_out[1]~2_combout $end
$var wire 1 Y sw[0]~input_o $end
$var wire 1 Z sw[4]~input_o $end
$var wire 1 [ Comparator|comp0|AEQB~0_combout $end
$var wire 1 \ HVAC_Sim|Add0~3 $end
$var wire 1 ] HVAC_Sim|Add0~4_combout $end
$var wire 1 ^ HVAC_Sim|counter:cnt[2]~q $end
$var wire 1 _ Comparator|ALTB~2_combout $end
$var wire 1 ` Comparator|AEQB~0_combout $end
$var wire 1 a Target_Temp|temp_out[0]~3_combout $end
$var wire 1 b Comparator|AGTB~1_combout $end
$var wire 1 c Comparator|AGTB~0_combout $end
$var wire 1 d HVAC_Sim|counter:cnt[0]~0_combout $end
$var wire 1 e HVAC_Sim|counter:cnt[0]~1_combout $end
$var wire 1 f HVAC_Sim|counter:cnt[0]~2_combout $end
$var wire 1 g HVAC_Sim|counter:cnt[0]~3_combout $end
$var wire 1 h HVAC_Sim|counter:cnt[0]~q $end
$var wire 1 i HVAC_Sim|counter~0_combout $end
$var wire 1 j Comparator|ALTB~1_combout $end
$var wire 1 k HVAC_Sim|counter~1_combout $end
$var wire 1 l HVAC_Sim|Add0~5 $end
$var wire 1 m HVAC_Sim|Add0~6_combout $end
$var wire 1 n HVAC_Sim|counter:cnt[3]~q $end
$var wire 1 o Comparator|ALTB~0_combout $end
$var wire 1 p Comparator|ALTB~3_combout $end
$var wire 1 q Comparator|AGTB~2_combout $end
$var wire 1 r Control_Energy|BLOWER~combout $end
$var wire 1 s leds~3_combout $end
$var wire 1 t leds~4_combout $end
$var wire 1 u leds~5_combout $end
$var wire 1 v leds~6_combout $end
$var wire 1 w leds~7_combout $end
$var wire 1 x leds~8_combout $end
$var wire 1 y leds~0_combout $end
$var wire 1 z leds~1_combout $end
$var wire 1 { leds~2_combout $end
$var wire 1 | leds~9_combout $end
$upscope $end
$upscope $end
$enddefinitions $end
#0
$dumpvars
0!
b0 "
b11100000 #
0/
1.
0-
0,
0+
0*
1)
0(
0'
0&
0%
0$
00
11
x2
13
14
15
06
z7
z8
09
1:
0;
0<
0=
0>
1?
0@
0A
0B
0C
0D
0E
0F
1G
0H
1I
0J
0K
0L
0M
0N
0O
0P
0Q
0R
1S
0T
0U
0V
1W
0X
0Y
0Z
0[
1\
1]
0^
1_
0`
0a
0b
0c
0d
0e
0f
0g
0h
1i
0j
0k
0l
1m
0n
0o
0p
0q
1r
0s
0t
0u
1v
1w
1x
0y
0z
0{
1|
$end
#5000
1!
1L
1M
#10000
0!
0L
0M
#15000
1!
1L
1M
#20000
0!
0L
0M
#25000
1!
1L
1M
#30000
0!
0L
0M
#35000
1!
1L
1M
#40000
0!
0L
0M
#45000
1!
1L
1M
#50000
0!
0L
0M
#55000
1!
1L
1M
#60000
0!
0L
0M
#65000
1!
1L
1M
#70000
0!
0L
0M
#75000
1!
1L
1M
#80000
0!
0L
0M
#85000
1!
1L
1M
#90000
0!
0L
0M
#95000
1!
1L
1M
#100000
0!
0L
0M
#105000
1!
1L
1M
#110000
0!
0L
0M
#115000
1!
1L
1M
#120000
0!
0L
0M
#125000
b11101000 #
b11101100 #
b11101110 #
1!
1L
1E
1J
1V
1M
0v
1H
1t
1K
0w
1s
1X
1o
0_
1j
1`
0:
1k
0r
0.
1p
19
1<
1f
0S
1u
1,
1/
0m
0]
1g
#130000
0!
0L
0M
#135000
1!
1L
1M
1h
1A
1d
1[
1R
1'
0g
1S
1T
#140000
0!
0L
0M
#145000
1!
1L
1M
0h
1U
1B
0A
1w
0s
0j
0[
0R
0\
0S
0'
1&
1g
1\
1S
1]
0T
0]
1T
#150000
0!
0L
0M
#155000
1!
1L
1M
1h
1A
1y
0w
1b
1[
1R
1'
0g
0\
0S
1]
0T
#160000
0!
0L
0M
#165000
1!
1L
1M
0h
1^
0U
0B
1C
0A
0y
1s
1j
0b
0[
0R
1z
0t
1l
1\
1S
0'
1%
0&
1g
0]
0z
1t
0S
0l
1m
1]
1T
0T
0m
#170000
0!
0L
0M
#175000
1!
1L
1M
1h
1A
1[
1R
1'
0g
1S
1T
#180000
0!
0L
0M
#185000
1!
1L
1M
0h
1U
1B
0A
1w
0s
0j
0[
0R
0\
0S
0'
1&
1g
0t
1\
1S
1l
0]
0T
0l
1]
1T
1m
0m
#190000
0!
0L
0M
#195000
1!
1L
1M
1h
1A
1y
0w
1b
1[
1R
1'
0g
1z
0\
0S
1l
0]
0T
1m
#200000
0!
0L
0M
#205000
1!
1L
1M
1n
0h
0^
0U
0B
0C
0A
1D
0u
0y
1s
1j
0b
0[
0R
0z
1t
0l
1\
1S
1$
0'
0%
0&
0m
1g
1]
0S
1u
1m
0]
1T
0T
#210000
0!
0L
0M
#215000
1!
1L
1M
1h
1A
1[
1R
1'
0g
1S
1T
#220000
0!
0L
0M
#225000
1!
1L
1M
0h
1U
1B
0A
1w
0s
0j
0[
0R
0\
0S
0'
1&
1g
1\
1S
1]
0T
0]
1T
#230000
0!
0L
0M
#235000
1!
1L
1M
1h
1A
1y
0w
1b
1[
1R
1'
0g
0\
0S
1]
0T
#240000
0!
0L
0M
#245000
1!
1L
1M
0h
1^
0U
0B
1C
0A
0y
1s
1j
0b
0[
0R
1z
1v
0t
0o
1_
1l
1\
1S
0'
1%
0&
1g
0]
0z
1t
0S
0u
0l
0m
1]
1T
1u
0T
1m
#250000
b100 "
0!
0L
1N
0M
0x
1r
1Q
0<
0f
0,
0g
#255000
1!
1L
1M
#260000
0!
0L
0M
#265000
1!
1L
1M
#270000
0!
0L
0M
#275000
1!
1L
1M
#280000
0!
0L
0M
#285000
1!
1L
1M
#290000
0!
0L
0M
#295000
1!
1L
1M
#300000
0!
0L
0M
#305000
1!
1L
1M
#310000
0!
0L
0M
#315000
1!
1L
1M
#320000
0!
0L
0M
#325000
1!
1L
1M
#330000
0!
0L
0M
#335000
1!
1L
1M
#340000
0!
0L
0M
#345000
1!
1L
1M
#350000
0!
0L
0M
#355000
1!
1L
1M
#360000
0!
0L
0M
#365000
1!
1L
1M
#370000
0!
0L
0M
#375000
b1101110 #
b101110 #
b1110 #
1!
1L
0G
0I
0W
1M
#380000
0!
0L
0M
#385000
1!
1L
1M
#390000
0!
0L
0M
#395000
1!
1L
1M
#400000
0!
0L
0M
#405000
1!
1L
1M
#410000
0!
0L
0M
#415000
1!
1L
1M
#420000
0!
0L
0M
#425000
1!
1L
1M
#430000
0!
0L
0M
#435000
1!
1L
1M
#440000
0!
0L
0M
#445000
1!
1L
1M
#450000
0!
0L
0M
#455000
1!
1L
1M
#460000
0!
0L
0M
#465000
1!
1L
1M
#470000
0!
0L
0M
#475000
1!
1L
1M
#480000
0!
0L
0M
#485000
1!
1L
1M
#490000
0!
0L
0M
#495000
1!
1L
1M
#500000
b110 #
b10 #
b0 #
b0 "
0!
0L
0E
0J
0V
0N
0M
0v
0u
0H
1z
0t
0K
1w
0s
0X
1x
0r
0Q
1<
1c
0_
0j
0`
1f
1,
1:
1e
0k
1`
1r
0f
1.
1q
0p
1g
09
1;
0<
0:
1f
1l
1S
0r
1{
0.
0,
1-
0/
0m
0]
0g
1<
1,
1g
1T
1m
#505000
1!
1L
1M
1h
0^
1U
1B
0C
1A
1y
0w
1b
1[
1R
0z
0l
0\
0S
1'
0%
1&
0g
1]
1z
1S
1l
0m
0]
0T
1T
1m
#510000
0!
0L
0M
#515000
1!
1L
1M
0h
0A
0[
0R
0'
1g
0S
0T
#520000
0!
0L
0M
#525000
1!
1L
1M
1h
0U
0B
1A
1[
1R
1\
1S
1'
0&
0g
0\
0S
0l
1]
1T
1l
0]
0T
0m
1m
#530000
0!
0L
0M
#535000
1!
1L
1M
0h
0A
0y
1w
0b
0[
0R
0'
1g
0z
1\
1S
0l
1]
1T
0m
#540000
0!
0L
0M
#545000
1!
1L
1M
0n
1h
1^
1U
1B
1C
1A
0D
0{
1y
0w
1b
1[
1R
1z
1l
0\
0S
0$
1'
1%
1&
1m
0g
0]
1S
1{
0m
1]
0T
1T
#550000
0!
0L
0M
#555000
1!
1L
1M
0h
0A
0[
0R
0'
1g
0S
0T
#560000
0!
0L
0M
#565000
1!
1L
1M
1h
0U
0B
1A
1[
1R
1\
1S
1'
0&
0g
0\
0S
0]
1T
1]
0T
#570000
0!
0L
0M
#575000
1!
1L
1M
0h
0A
0y
1w
0b
0[
0R
0'
1g
1\
1S
0]
1T
#580000
0!
0L
0M
#585000
1!
1L
1M
1h
0^
1U
1B
0C
1A
1y
0w
1b
1[
1R
0z
1v
0c
1_
0l
0\
0S
1'
0%
1&
0g
1]
1z
1S
0{
1l
1m
0]
0T
1{
1T
0m
#590000
0!
0L
0M
#595000
1!
1L
1M
0h
0A
0[
0R
0'
1g
0S
0T
#600000
0!
0L
0M
#605000
1!
1L
1M
1h
0U
0B
1A
1[
1R
0`
1\
1S
1'
0&
0g
1:
1`
0\
0S
1r
0f
0l
1.
1]
1T
0<
0:
0r
1f
1l
0.
0,
0]
0T
1g
1m
1<
1,
0g
0m
#610000
0!
0L
0M
#615000
1!
1L
1M
0h
0A
0y
1w
0d
0b
0[
0R
0'
1g
0z
0e
0`
1\
1S
0q
0;
1:
0{
0f
1r
0l
1.
0-
1]
1T
0<
0,
0g
0T
1m
#620000
0!
0L
0M
#625000
b10000 #
b10010000 #
b11010000 #
b11110000 #
1!
1L
1G
1I
1W
1Z
1M
#630000
0!
0L
0M
#635000
1!
1L
1M
#640000
0!
0L
0M
#645000
1!
1L
1M
#650000
0!
0L
0M
#655000
1!
1L
1M
#660000
0!
0L
0M
#665000
1!
1L
1M
#670000
0!
0L
0M
#675000
1!
1L
1M
#680000
0!
0L
0M
#685000
1!
1L
1M
#690000
0!
0L
0M
#695000
1!
1L
1M
#700000
0!
0L
0M
#705000
1!
1L
1M
#710000
0!
0L
0M
#715000
1!
1L
1M
#720000
0!
0L
0M
#725000
1!
1L
1M
#730000
0!
0L
0M
#735000
1!
1L
1M
#740000
0!
0L
0M
#745000
1!
1L
1M
#750000
b11110001 #
b11111001 #
b11111101 #
b11111111 #
b100 "
0!
0L
1E
1J
1V
1Y
1N
0M
0v
1H
1t
1K
0w
1s
1X
1a
1[
1Q
0x
1o
0_
1j
1`
0:
1k
0.
0|
1p
19
0?
0S
1u
0)
1/
0m
0]
1|
1?
1)
