Lab3/simulation/qsim/LogicalStep_Lab3.msim.vcd
$comment
	File created using the following command:
		vcd file LogicalStep_Lab3.msim.vcd -direction
$end
$date
	Fri Mar 12 16:46:40 2021
$end
$version
	ModelSim Version 10.5b
$end
$timescale
	1ps
$end

$scope module logicalstep_lab3_top_vhd_vec_tst $end
$var wire 1 ! clk_in $end
$var wire 1 " leds [11] $end
$var wire 1 # leds [10] $end
$var wire 1 $ leds [9] $end
$var wire 1 % leds [8] $end
$var wire 1 & leds [7] $end
$var wire 1 ' leds [6] $end
$var wire 1 ( leds [5] $end
$var wire 1 ) leds [4] $end
$var wire 1 * leds [3] $end
$var wire 1 + leds [2] $end
$var wire 1 , leds [1] $end
$var wire 1 - leds [0] $end
$var wire 1 . pb [3] $end
$var wire 1 / pb [2] $end
$var wire 1 0 pb [1] $end
$var wire 1 1 pb [0] $end
$var wire 1 2 sw [7] $end
$var wire 1 3 sw [6] $end
$var wire 1 4 sw [5] $end
$var wire 1 5 sw [4] $end
$var wire 1 6 sw [3] $end
$var wire 1 7 sw [2] $end
$var wire 1 8 sw [1] $end
$var wire 1 9 sw [0] $end

$scope module i1 $end
$var wire 1 : gnd $end
$var wire 1 ; vcc $end
$var wire 1 < unknown $end
$var wire 1 = devoe $end
$var wire 1 > devclrn $end
$var wire 1 ? devpor $end
$var wire 1 @ ww_devoe $end
$var wire 1 A ww_devclrn $end
$var wire 1 B ww_devpor $end
$var wire 1 C ww_clk_in $end
$var wire 1 D ww_pb [3] $end
$var wire 1 E ww_pb [2] $end
$var wire 1 F ww_pb [1] $end
$var wire 1 G ww_pb [0] $end
$var wire 1 H ww_sw [7] $end
$var wire 1 I ww_sw [6] $end
$var wire 1 J ww_sw [5] $end
$var wire 1 K ww_sw [4] $end
$var wire 1 L ww_sw [3] $end
$var wire 1 M ww_sw [2] $end
$var wire 1 N ww_sw [1] $end
$var wire 1 O ww_sw [0] $end
$var wire 1 P ww_leds [11] $end
$var wire 1 Q ww_leds [10] $end
$var wire 1 R ww_leds [9] $end
$var wire 1 S ww_leds [8] $end
$var wire 1 T ww_leds [7] $end
$var wire 1 U ww_leds [6] $end
$var wire 1 V ww_leds [5] $end
$var wire 1 W ww_leds [4] $end
$var wire 1 X ww_leds [3] $end
$var wire 1 Y ww_leds [2] $end
$var wire 1 Z ww_leds [1] $end
$var wire 1 [ ww_leds [0] $end
$var wire 1 \ \~QUARTUS_CREATED_ADC1~_CHSEL_bus\ [4] $end
$var wire 1 ] \~QUARTUS_CREATED_ADC1~_CHSEL_bus\ [3] $end
$var wire 1 ^ \~QUARTUS_CREATED_ADC1~_CHSEL_bus\ [2] $end
$var wire 1 _ \~QUARTUS_CREATED_ADC1~_CHSEL_bus\ [1] $end
$var wire 1 ` \~QUARTUS_CREATED_ADC1~_CHSEL_bus\ [0] $end
$var wire 1 a \clk_in~inputclkctrl_INCLK_bus\ [3] $end
$var wire 1 b \clk_in~inputclkctrl_INCLK_bus\ [2] $end
$var wire 1 c \clk_in~inputclkctrl_INCLK_bus\ [1] $end
$var wire 1 d \clk_in~inputclkctrl_INCLK_bus\ [0] $end
$var wire 1 e \~QUARTUS_CREATED_GND~I_combout\ $end
$var wire 1 f \~QUARTUS_CREATED_UNVM~~busy\ $end
$var wire 1 g \~QUARTUS_CREATED_ADC1~~eoc\ $end
$var wire 1 h \leds[0]~output_o\ $end
$var wire 1 i \leds[1]~output_o\ $end
$var wire 1 j \leds[2]~output_o\ $end
$var wire 1 k \leds[3]~output_o\ $end
$var wire 1 l \leds[4]~output_o\ $end
$var wire 1 m \leds[5]~output_o\ $end
$var wire 1 n \leds[6]~output_o\ $end
$var wire 1 o \leds[7]~output_o\ $end
$var wire 1 p \leds[8]~output_o\ $end
$var wire 1 q \leds[9]~output_o\ $end
$var wire 1 r \leds[10]~output_o\ $end
$var wire 1 s \leds[11]~output_o\ $end
$var wire 1 t \sw[3]~input_o\ $end
$var wire 1 u \pb[3]~input_o\ $end
$var wire 1 v \sw[7]~input_o\ $end
$var wire 1 w \Target_Temp|temp_out[3]~0_combout\ $end
$var wire 1 x \sw[6]~input_o\ $end
$var wire 1 y \sw[2]~input_o\ $end
$var wire 1 z \Target_Temp|temp_out[2]~1_combout\ $end
$var wire 1 { \clk_in~input_o\ $end
$var wire 1 | \clk_in~inputclkctrl_outclk\ $end
$var wire 1 } \pb[2]~input_o\ $end
$var wire 1 ~ \pb[1]~input_o\ $end
$var wire 1 !! \pb[0]~input_o\ $end
$var wire 1 "! \Control_Energy|BLOWER~2_combout\ $end
$var wire 1 #! \HVAC_Sim|Add0~1_cout\ $end
$var wire 1 $! \HVAC_Sim|Add0~2_combout\ $end
$var wire 1 %! \HVAC_Sim|counter:cnt[1]~0_combout\ $end
$var wire 1 &! \HVAC_Sim|counter:cnt[1]~q\ $end
$var wire 1 '! \sw[1]~input_o\ $end
$var wire 1 (! \sw[5]~input_o\ $end
$var wire 1 )! \Target_Temp|temp_out[1]~2_combout\ $end
$var wire 1 *! \sw[0]~input_o\ $end
$var wire 1 +! \sw[4]~input_o\ $end
$var wire 1 ,! \Comparator|comp0|AEQB~0_combout\ $end
$var wire 1 -! \HVAC_Sim|Add0~3\ $end
$var wire 1 .! \HVAC_Sim|Add0~4_combout\ $end
$var wire 1 /! \HVAC_Sim|counter:cnt[2]~q\ $end
$var wire 1 0! \Comparator|ALTB~2_combout\ $end
$var wire 1 1! \Comparator|AEQB~0_combout\ $end
$var wire 1 2! \Target_Temp|temp_out[0]~3_combout\ $end
$var wire 1 3! \Comparator|AGTB~1_combout\ $end
$var wire 1 4! \Comparator|AGTB~0_combout\ $end
$var wire 1 5! \HVAC_Sim|counter:cnt[0]~0_combout\ $end
$var wire 1 6! \HVAC_Sim|counter:cnt[0]~1_combout\ $end
$var wire 1 7! \HVAC_Sim|counter:cnt[0]~2_combout\ $end
$var wire 1 8! \HVAC_Sim|counter:cnt[0]~3_combout\ $end
$var wire 1 9! \HVAC_Sim|counter:cnt[0]~q\ $end
$var wire 1 :! \HVAC_Sim|counter~0_combout\ $end
$var wire 1 ;! \Comparator|ALTB~1_combout\ $end
$var wire 1 <! \HVAC_Sim|counter~1_combout\ $end
$var wire 1 =! \HVAC_Sim|Add0~5\ $end
$var wire 1 >! \HVAC_Sim|Add0~6_combout\ $end
$var wire 1 ?! \HVAC_Sim|counter:cnt[3]~q\ $end
$var wire 1 @! \Comparator|ALTB~0_combout\ $end
$var wire 1 A! \Comparator|ALTB~3_combout\ $end
$var wire 1 B! \Comparator|AGTB~2_combout\ $end
$var wire 1 C! \Control_Energy|BLOWER~combout\ $end
$var wire 1 D! \leds~3_combout\ $end
$var wire 1 E! \leds~4_combout\ $end
$var wire 1 F! \leds~5_combout\ $end
$var wire 1 G! \leds~6_combout\ $end
$var wire 1 H! \leds~7_combout\ $end
$var wire 1 I! \leds~8_combout\ $end
$var wire 1 J! \leds~0_combout\ $end
$var wire 1 K! \leds~1_combout\ $end
$var wire 1 L! \leds~2_combout\ $end
$var wire 1 M! \leds~9_combout\ $end
$var wire 1 N! \Control_Energy|ALT_INV_BLOWER~combout\ $end
$var wire 1 O! \Comparator|ALT_INV_AEQB~0_combout\ $end
$upscope $end
$upscope $end
$enddefinitions $end
#0
$dumpvars
0!
0:
1;
x<
1=
1>
1?
1@
1A
1B
0C
0e
zf
zg
1h
0i
0j
1k
0l
0m
1n
1o
0p
0q
0r
0s
1t
1u
1v
1w
0x
0y
0z
0{
0|
0}
0~
0!!
0"!
0#!
0$!
0%!
0&!
1'!
0(!
0)!
0*!
0+!
0,!
1-!
0.!
0/!
00!
11!
02!
03!
04!
05!
06!
17!
18!
09!
1:!
0;!
1<!
0=!
0>!
0?!
1@!
1A!
0B!
0C!
1D!
1E!
1F!
0G!
0H!
1I!
0J!
0K!
0L!
1M!
1N!
0O!
1.
0/
00
01
12
03
04
05
16
07
18
09
1D
0E
0F
0G
1H
0I
0J
0K
1L
0M
1N
0O
0P
0Q
0R
0S
1T
1U
0V
0W
1X
0Y
0Z
1[
1a
1b
1c
0d
0\
0]
0^
0_
0`
0"
0#
0$
0%
1&
1'
0(
0)
1*
0+
0,
1-
$end
#25000
1!
1C
1{
1d
1|
19!
1p
1#!
1,!
13!
15!
08!
1S
1$!
1%
1%!
#50000
0!
0C
0{
0d
0|
#75000
1!
1C
1{
1d
1|
1&!
09!
0p
1q
0#!
0,!
18!
0$!
0-!
0D!
1H!
0S
1R
0E!
1.!
0%!
1$!
1-!
0%
1$
0.!
1%!
#100000
0!
0C
0{
0d
0|
#125000
1!
1C
1{
1d
1|
19!
1p
1#!
1,!
08!
0H!
1J!
1S
1K!
0$!
0-!
1%
1.!
0%!
#150000
0!
0C
0{
0d
0|
#175000
1!
1C
1{
1d
1|
0&!
1/!
09!
0p
1r
0q
0#!
0,!
18!
0.!
1=!
1$!
1-!
03!
1D!
0J!
0S
1Q
0R
1.!
0=!
1%!
1>!
0$!
0%
0$
1#
0%!
0>!
#200000
0!
0C
0{
0d
0|
#225000
1!
1C
1{
1d
1|
19!
1p
1#!
1,!
13!
08!
1S
1$!
1%
1%!
#250000
0!
1/
0C
1E
1}
0{
0d
1"!
1C!
0I!
0N!
07!
0k
0|
0%!
18!
0X
0*
#275000
1!
1C
1{
1d
1|
#300000
0!
0C
0{
0d
0|
#325000
1!
1C
1{
1d
1|
#350000
0!
0C
0{
0d
0|
#375000
1!
1C
1{
1d
1|
#400000
0!
0C
0{
0d
0|
#425000
1!
1C
1{
1d
1|
#450000
0!
0C
0{
0d
0|
#475000
1!
1C
1{
1d
1|
#500000
0!
0/
0C
0E
0}
0{
0d
0"!
0C!
1I!
1N!
17!
1k
0|
1%!
08!
1X
1*
#525000
1!
1C
1{
1d
1|
1&!
09!
0p
1q
0#!
0,!
18!
0$!
0-!
0D!
1H!
0S
1R
0.!
1=!
0%!
1$!
1-!
0%
1$
1.!
0=!
1%!
1>!
0>!
#550000
0!
0C
0{
0d
0|
#575000
1!
1C
1{
1d
1|
19!
1p
1#!
1,!
08!
0H!
1J!
1S
0$!
0-!
1%
0.!
1=!
0%!
1>!
#600000
0!
0C
0{
0d
0|
#625000
1!
1C
1{
1d
1|
0&!
0/!
09!
1?!
1s
0p
0r
0q
0>!
0F!
0#!
0,!
18!
1.!
0=!
10!
0@!
1G!
1$!
1-!
03!
1D!
0J!
1P
0S
0Q
0R
0K!
1E!
0.!
1%!
0<!
0A!
1>!
01!
0$!
0%
0$
0#
1"
1O!
0h
0%!
1C!
1$!
1.!
07!
0>!
1i
0N!
0[
08!
1Z
0-
0k
1,
0X
0*
#650000
0!
0C
0{
0d
0|
#675000
1!
1C
1{
1d
1|
#700000
0!
0C
0{
0d
0|
#725000
1!
1C
1{
1d
1|
#750000
0!
1/
0C
1E
1}
0{
0d
1"!
0I!
0M!
0|
0n
0U
0'
#775000
1!
1C
1{
1d
1|
#800000
0!
0C
0{
0d
0|
#825000
1!
1C
1{
1d
1|
#850000
0!
0C
0{
0d
0|
#875000
1!
1C
1{
1d
1|
#900000
0!
0C
0{
0d
0|
#925000
1!
1C
1{
1d
1|
#950000
0!
0C
0{
0d
0|
#975000
1!
1C
1{
1d
1|
